…
Tibbles also help your console from getting overwhelmed by printing massive data frames. So way better than using View() or printing a whole dataframe, or even using a workaround method such as using a function on your data frame that prints only the first few rows: head(10).

Let’s have a look - notice this tibble is telling us we have a  data-time column (dttm), a date column, an integer, a doublem and a character. All without having to call an extra function to look at it. 

Note: we don’t cover date formats in this tutorial, but do read this if you want to know more: https://r4ds.had.co.nz/dates-and-times.html 

```{r}
tibble(
  a = lubridate::now() + runif(1e3) * 86400,
  b = lubridate::today() + runif(1e3) * 30,
  c = 1:1e3,
  d = runif(1e3),
  e = sample(letters, 1e3, replace = TRUE)
)
#> # A tibble: 1,000 × 5
#>   a                   b              c     d e    
#>   <dttm>              <date>     <int> <dbl> <chr>
#> 1 2022-11-18 23:15:18 2022-11-25     1 0.368 n    
#> 2 2022-11-19 17:20:28 2022-11-30     2 0.612 l    
#> 3 2022-11-19 11:44:07 2022-12-10     3 0.415 p    
#> 4 2022-11-19 01:05:24 2022-12-09     4 0.212 m    
#> 5 2022-11-18 21:29:41 2022-12-06     5 0.733 i    
#> 6 2022-11-19 08:30:38 2022-12-02     6 0.460 n    
#> # ... with 994 more rows
```
…
# 5.5.1 Tidy data
There are many ways to display a given data set, but not every way is easy to use for analysis. Note that in the example below, only table1 is “tidy”. Once you look at the differences of these, we’ll go over what makes a tidy dataset and why you always should strive to get your data into this format. 
```{r}
table1
#> # A tibble: 6 × 4
#>   country      year  cases population
#>   <chr>       <int>  <int>      <int>
#> 1 Afghanistan  1999    745   19987071
#> 2 Afghanistan  2000   2666   20595360
#> 3 Brazil       1999  37737  172006362
#> 4 Brazil       2000  80488  174504898
#> 5 China        1999 212258 1272915272
#> 6 China        2000 213766 1280428583
table2
#> # A tibble: 12 × 4
#>   country      year type           count
#>   <chr>       <int> <chr>          <int>
#> 1 Afghanistan  1999 cases            745
#> 2 Afghanistan  1999 population  19987071
#> 3 Afghanistan  2000 cases           2666
#> 4 Afghanistan  2000 population  20595360
#> 5 Brazil       1999 cases          37737
#> 6 Brazil       1999 population 172006362
#> # ... with 6 more rows
…
To handle an observation scattered across multiple rows. pivot_wider() is the opposite of pivot_longer(). In table2 we see an observation is a country in a year with the observation spread across two rows.

```{r}
table2
#> # A tibble: 12 × 4
#>   country      year type           count
#>   <chr>       <int> <chr>          <int>
#> 1 Afghanistan  1999 cases            745
#> 2 Afghanistan  1999 population  19987071
#> 3 Afghanistan  2000 cases           2666
#> 4 Afghanistan  2000 population  20595360
#> 5 Brazil       1999 cases          37737
#> 6 Brazil       1999 population 172006362
#> # ... with 6 more rows
```
…
Another important tool for making missing values explicit - very clear to you that they represent actual missing data values -  in tidy data is complete(). This function takes a set of columns and finds all the unique combinations and then ensures the original dataset contains all of those values, including filling in explicit NA where needed.
```{r}
stocks
stocks %>% 
  complete(year, qtr)
#> # A tibble: 8 × 3
#>    year   qtr return
#>   <dbl> <dbl>  <dbl>
#> 1  2015     1   1.88
#> 2  2015     2   0.59
#> 3  2015     3   0.35
#> 4  2015     4  NA   
#> 5  2016     1  NA   
#> 6  2016     2   0.92
#> # ... with 2 more rows
```
…
Note: dplyr makes common operations easier, though sometimes at the expense of making it more difficult to do other things that aren’t often needed for data analysis. So there are some tradeoffs, and you can read the textbook for the specific details of them. In practice, I am sure you’ll find these all very useful.

Let’s explore relational data using the nycflight13 package dataset. You should already be familiar with this dataset from the Tibbles section (5.3). Make sure tidyverse and nycflights13 are loaded into your R library for this session.

```{r}
library(tidyverse)
library(nycflights13)
```

nycflights13 contains four tibbles that are related to the flights table that you used in data transformation:
airlines lets you look up the full carrier name from its abbreviated code:
```{r}
airlines
#> # A tibble: 16 × 2
#>   carrier name                    
#>   <chr>   <chr>                   
#> 1 9E      Endeavor Air Inc.       
#> 2 AA      American Airlines Inc.  
#> 3 AS      Alaska Airlines Inc.    
#> 4 B6      JetBlue Airways         
#> 5 DL      Delta Air Lines Inc.    
#> 6 EV      ExpressJet Airlines Inc.
#> # ... with 10 more rows
```
airports gives information about each airport, identified by the faa airport code:
```{r}
airports
#> # A tibble: 1,458 × 8
#>   faa   name                             lat   lon   alt    tz dst   tzone      
#>   <chr> <chr>                          <dbl> <dbl> <dbl> <dbl> <chr> <chr>      
#> 1 04G   Lansdowne Airport               41.1 -80.6  1044    -5 A     America/Ne...
#> 2 06A   Moton Field Municipal Airport   32.5 -85.7   264    -6 A     America/Ch...
#> 3 06C   Schaumburg Regional             42.0 -88.1   801    -6 A     America/Ch...
#> 4 06N   Randall Airport                 41.4 -75.4   523    -5 A     America/Ne...
#> 5 09J   Jekyll Island Airport           31.1 -81.4    11    -5 A     America/Ne...
#> 6 0A9   Elizabethton Municipal Airport  36.4 -82.2  1593    -5 A     America/Ne...
#> # ... with 1,452 more rows
```
planes gives information about each plane, identified by its tailnum:
```{r}
planes
#> # A tibble: 3,322 × 9
#>   tailnum  year type                    manuf...¹ model engines seats speed engine
#>   <chr>   <int> <chr>                   <chr>   <chr>   <int> <int> <int> <chr> 
#> 1 N10156   2004 Fixed wing multi engine EMBRAER EMB-...       2    55    NA Turbo...
#> 2 N102UW   1998 Fixed wing multi engine AIRBUS... A320...       2   182    NA Turbo...
#> 3 N103US   1999 Fixed wing multi engine AIRBUS... A320...       2   182    NA Turbo...
#> 4 N104UW   1999 Fixed wing multi engine AIRBUS... A320...       2   182    NA Turbo...
#> 5 N10575   2002 Fixed wing multi engine EMBRAER EMB-...       2    55    NA Turbo...
#> 6 N105UW   1999 Fixed wing multi engine AIRBUS... A320...       2   182    NA Turbo...
#> # ... with 3,316 more rows, and abbreviated variable name ¹​manufacturer
```
weather gives the weather at each NYC airport for each hour:
```{r}
weather
#> # A tibble: 26,115 × 15
#>   origin  year month   day  hour  temp  dewp humid wind_dir wind_speed wind_gust
#>   <chr>  <int> <int> <int> <int> <dbl> <dbl> <dbl>    <dbl>      <dbl>     <dbl>
#> 1 EWR     2013     1     1     1  39.0  26.1  59.4      270      10.4         NA
#> 2 EWR     2013     1     1     2  39.0  27.0  61.6      250       8.06        NA
#> 3 EWR     2013     1     1     3  39.0  28.0  65.4      240      11.5         NA
#> 4 EWR     2013     1     1     4  39.9  28.0  62.2      250      12.7         NA
#> 5 EWR     2013     1     1     5  39.0  28.0  65.4      260      12.7         NA
#> 6 EWR     2013     1     1     6  37.9  28.0  67.2      240      11.5         NA
#> # ... with 26,109 more rows, and 4 more variables: precip <dbl>, pressure <dbl>,
#> #   visib <dbl>, time_hour <dttm>
```
…
Sometimes a table doesn’t have an explicit primary key: each row is an observation, but no combination of variables reliably identifies it. For example, what’s the primary key in the flights table? You might think it would be the date plus the flight or tail number, but neither of those are unique:
```{r}
flights %>% 
  count(year, month, day, flight) %>% 
  filter(n > 1)
#> # A tibble: 29,768 × 5
#>    year month   day flight     n
#>   <int> <int> <int>  <int> <int>
#> 1  2013     1     1      1     2
#> 2  2013     1     1      3     2
#> 3  2013     1     1      4     2
#> 4  2013     1     1     11     3
#> 5  2013     1     1     15     2
#> 6  2013     1     1     21     2
#> # ... with 29,762 more rows

flights %>% 
  count(year, month, day, tailnum) %>% 
  filter(n > 1)
#> # A tibble: 64,928 × 5
#>    year month   day tailnum     n
#>   <int> <int> <int> <chr>   <int>
#> 1  2013     1     1 N0EGMQ      2
#> 2  2013     1     1 N11189      2
#> 3  2013     1     1 N11536      2
#> 4  2013     1     1 N11544      3
#> 5  2013     1     1 N11551      2
#> 6  2013     1     1 N12540      2
#> # ... with 64,922 more rows
```
…
A primary key and the corresponding foreign key in another table form a relation. Relations are typically one-to-many. For example, each flight has one plane, but each plane has many flights. In other data, you’ll occasionally see a 1-to-1 relationship. You can think of this as a special case of 1-to-many. You can model many-to-many relations with a many-to-1 relation plus a 1-to-many relation. For example, in this data there’s a many-to-many relationship between airlines and airports: each airline flies to many airports; each airport hosts many airlines.

# 5.6.2 Mutating joins
Mutating joins are a great tool we can use for combining a pair of tables.

A mutating join allows you to combine variables from two tables. It first matches observations by their keys, then copies across variables from one table to the other.

Join functions (like the base mutate()) add variables to the right side of your data table so sometimes you’ll need to change the view of your screen to see them all. (Remember your tibble skills! Set your global options!) 

Or you can view them on a new tab entirely with View() in R studio. First we are going to create a narrower subset of the data from nycflights13 just so that it’s easier to see the variables being added one one screen:
```{r}
flights2 <- flights %>% 
  select(year:day, hour, origin, dest, tailnum, carrier)
#> # A tibble: 336,776 × 8
#>    year month   day  hour origin dest  tailnum carrier
#>   <int> <int> <int> <dbl> <chr>  <chr> <chr>   <chr>  
#> 1  2013     1     1     5 EWR    IAH   N14228  UA     
#> 2  2013     1     1     5 LGA    IAH   N24211  UA     
#> 3  2013     1     1     5 JFK    MIA   N619AA  AA     
#> 4  2013     1     1     5 JFK    BQN   N804JB  B6     
#> 5  2013     1     1     6 LGA    ATL   N668DN  DL     
#> 6  2013     1     1     5 EWR    ORD   N39463  UA     
#> # ... with 336,770 more rows
```
Now we will see what happens when we use the mutating function left_join()
```{r}
flights2 %>%
  select(-origin, -dest) %>% 
  left_join(airlines, by = "carrier")
#> # A tibble: 336,776 × 7
#>    year month   day  hour tailnum carrier name                  
#>   <int> <int> <int> <dbl> <chr>   <chr>   <chr>                 
#> 1  2013     1     1     5 N14228  UA      United Air Lines Inc. 
#> 2  2013     1     1     5 N24211  UA      United Air Lines Inc. 
#> 3  2013     1     1     5 N619AA  AA      American Airlines Inc.
#> 4  2013     1     1     5 N804JB  B6      JetBlue Airways       
#> 5  2013     1     1     6 N668DN  DL      Delta Air Lines Inc.  
#> 6  2013     1     1     5 N39463  UA      United Air Lines Inc. 
#> # ... with 336,770 more rows
```
Here, we have asked it to add the full arline name to the flights2 data by combining the airlines and flights2 data frames with left_join(). Notice the column name has been added on the right and contains the carrier’s full name.

Now, we could have gotten to this same result using the R base mutate() function (see code below), but notice that the code is much more involved and can get messy when matching multiple variables. This is why we use a “mutating join” to make life a little easier.
```{r}
flights2 %>%
  select(-origin, -dest) %>% 
  mutate(name = airlines$name[match(carrier, airlines$carrier)])
#> # A tibble: 336,776 × 7
#>    year month   day  hour tailnum carrier name                  
#>   <int> <int> <int> <dbl> <chr>   <chr>   <chr>                 
#> 1  2013     1     1     5 N14228  UA      United Air Lines Inc. 
#> 2  2013     1     1     5 N24211  UA      United Air Lines Inc. 
#> 3  2013     1     1     5 N619AA  AA      American Airlines Inc.
#> 4  2013     1     1     5 N804JB  B6      JetBlue Airways       
#> 5  2013     1     1     6 N668DN  DL      Delta Air Lines Inc.  
#> 6  2013     1     1     5 N39463  UA      United Air Lines Inc. 
#> # ... with 336,770 more rows
```
…
So far, the pairs of tables have always been joined by a single variable, and that variable has the same name in both tables. That constraint was encoded by by = "key". You can use other values for by to connect the tables in other ways:
- The default, by = NULL, uses all variables that appear in both tables, the natural join. For example, the flights and weather tables match on their common variables: year, month, day, hour and origin.

```{r}
flights2 %>% 
  left_join(weather)
#> Joining, by = c("year", "month", "day", "hour", "origin")
#> # A tibble: 336,776 × 18
#>    year month   day  hour origin dest  tailnum carrier  temp  dewp humid wind_...¹
#>   <int> <int> <int> <dbl> <chr>  <chr> <chr>   <chr>   <dbl> <dbl> <dbl>   <dbl>
#> 1  2013     1     1     5 EWR    IAH   N14228  UA       39.0  28.0  64.4     260
#> 2  2013     1     1     5 LGA    IAH   N24211  UA       39.9  25.0  54.8     250
#> 3  2013     1     1     5 JFK    MIA   N619AA  AA       39.0  27.0  61.6     260
#> 4  2013     1     1     5 JFK    BQN   N804JB  B6       39.0  27.0  61.6     260
#> 5  2013     1     1     6 LGA    ATL   N668DN  DL       39.9  25.0  54.8     260
#> 6  2013     1     1     5 EWR    ORD   N39463  UA       39.0  28.0  64.4     260
#> # ... with 336,770 more rows, 6 more variables: wind_speed <dbl>,
#> #   wind_gust <dbl>, precip <dbl>, pressure <dbl>, visib <dbl>,
#> #   time_hour <dttm>, and abbreviated variable name ¹​wind_dir
```
- A character vector, by = "x". This is like a natural join, but uses only some of the common variables. For example, flights and planes have year variables, but they mean different things so we only want to join by tailnum. Note: that the year variables (which appear in both input data frames, but are not constrained to be equal) are disambiguated in the output with a suffix.

```{r}

flights2 %>% 
  left_join(planes, by = "tailnum")
#> # A tibble: 336,776 × 16
#>   year.x month   day  hour origin dest  tailnum carrier year.y type      manuf...¹
#>    <int> <int> <int> <dbl> <chr>  <chr> <chr>   <chr>    <int> <chr>     <chr>  
#> 1   2013     1     1     5 EWR    IAH   N14228  UA        1999 Fixed wi... BOEING 
#> 2   2013     1     1     5 LGA    IAH   N24211  UA        1998 Fixed wi... BOEING 
#> 3   2013     1     1     5 JFK    MIA   N619AA  AA        1990 Fixed wi... BOEING 
#> 4   2013     1     1     5 JFK    BQN   N804JB  B6        2012 Fixed wi... AIRBUS 
#> 5   2013     1     1     6 LGA    ATL   N668DN  DL        1991 Fixed wi... BOEING 
#> 6   2013     1     1     5 EWR    ORD   N39463  UA        2012 Fixed wi... BOEING 
#> # ... with 336,770 more rows, 5 more variables: model <chr>, engines <int>,
#> #   seats <int>, speed <int>, engine <chr>, and abbreviated variable name
#> #   ¹​manufacturer
```
- A named character vector: by = c("a" = "b"). This will match variable a in table x to variable b in table y. The variables from x will be used in the output. 

For example, if we want to draw a map (this will be relevant for our last workshop!) we need to combine the flights data with the airports data which contains the location (lat and lon) of each airport. 

Each flight has an origin and destination airport, so we need to specify which one we want to join to:
```{r}
flights2 %>% 
  left_join(airports, c("dest" = "faa"))
#> # A tibble: 336,776 × 15
#>    year month   day  hour origin dest  tailnum carrier name      lat   lon   alt
#>   <int> <int> <int> <dbl> <chr>  <chr> <chr>   <chr>   <chr>   <dbl> <dbl> <dbl>
#> 1  2013     1     1     5 EWR    IAH   N14228  UA      George...  30.0 -95.3    97
#> 2  2013     1     1     5 LGA    IAH   N24211  UA      George...  30.0 -95.3    97
#> 3  2013     1     1     5 JFK    MIA   N619AA  AA      Miami ...  25.8 -80.3     8
#> 4  2013     1     1     5 JFK    BQN   N804JB  B6      <NA>     NA    NA      NA
#> 5  2013     1     1     6 LGA    ATL   N668DN  DL      Hartsf...  33.6 -84.4  1026
#> 6  2013     1     1     5 EWR    ORD   N39463  UA      Chicag...  42.0 -87.9   668
#> # ... with 336,770 more rows, and 3 more variables: tz <dbl>, dst <chr>,
#> #   tzone <chr>

flights2 %>% 
  left_join(airports, c("origin" = "faa"))
#> # A tibble: 336,776 × 15
#>    year month   day  hour origin dest  tailnum carrier name      lat   lon   alt
#>   <int> <int> <int> <dbl> <chr>  <chr> <chr>   <chr>   <chr>   <dbl> <dbl> <dbl>
#> 1  2013     1     1     5 EWR    IAH   N14228  UA      Newark...  40.7 -74.2    18
#> 2  2013     1     1     5 LGA    IAH   N24211  UA      La Gua...  40.8 -73.9    22
#> 3  2013     1     1     5 JFK    MIA   N619AA  AA      John F...  40.6 -73.8    13
#> 4  2013     1     1     5 JFK    BQN   N804JB  B6      John F...  40.6 -73.8    13
#> 5  2013     1     1     6 LGA    ATL   N668DN  DL      La Gua...  40.8 -73.9    22
#> 6  2013     1     1     5 EWR    ORD   N39463  UA      Newark...  40.7 -74.2    18
#> # ... with 336,770 more rows, and 3 more variables: tz <dbl>, dst <chr>,
#> #   tzone <chr>
```
…
# 5.6.3 Filtering Joins
Generally I would say you’re not going to use types of joins very often, or if you do you are at a point where you really know what you are doing in R. 

Filtering joins also match observations but they affect the observations themselves rather than the variables like we saw from mutating joins. The two types of filtering joins are semi_join(x,y) and anti_join(x,y).
semi_join(x,y) keeps all observations in x that have a match in y 

anti_join(x,y) drops all the observations in x that have a match in y.

Semi-joins are useful for matching filtered summary tables back to the original rows. For example, imagine you’ve found the top ten most popular destinations from nycflights13:
```{r}
top_dest <- flights %>%
  count(dest, sort = TRUE) %>%
  head(10)
top_dest
#> # A tibble: 10 × 2
#>   dest      n
#>   <chr> <int>
#> 1 ORD   17283
#> 2 ATL   17215
#> 3 LAX   16174
#> 4 BOS   15508
#> 5 MCO   14082
#> 6 CLT   14064
#> # ... with 4 more rows
```
Now, if you wanted to find each flight that went to one of those destinations you could construct a filter like so:
```{r}
flights %>% 
  filter(dest %in% top_dest$dest)
#> # A tibble: 141,145 × 19
#>    year month   day dep_time sched_dep...¹ dep_d...² arr_t...³ sched...⁴ arr_d...⁵ carrier
#>   <int> <int> <int>    <int>       <int>   <dbl>   <int>   <int>   <dbl> <chr>  
#> 1  2013     1     1      542         540       2     923     850      33 AA     
#> 2  2013     1     1      554         600      -6     812     837     -25 DL     
#> 3  2013     1     1      554         558      -4     740     728      12 UA     
#> 4  2013     1     1      555         600      -5     913     854      19 B6     
#> 5  2013     1     1      557         600      -3     838     846      -8 B6     
#> 6  2013     1     1      558         600      -2     753     745       8 AA     
#> # ... with 141,139 more rows, 9 more variables: flight <int>, tailnum <chr>,
#> #   origin <chr>, dest <chr>, air_time <dbl>, distance <dbl>, hour <dbl>,
#> #   minute <dbl>, time_hour <dttm>, and abbreviated variable names
#> #   ¹​sched_dep_time, ²​dep_delay, ³​arr_time, ⁴​sched_arr_time, ⁵​arr_delay
```
…
